-------------------------------------------------------------------------------
Test set: com.itextpdf.text.pdf.parser.PdfContentStreamProcessorTest
-------------------------------------------------------------------------------
Tests run: 1, Failures: 0, Errors: 0, Skipped: 0, Time elapsed: 0.101 sec
